# palmerpenguins

## palmerpenguinsデータセット

+ palmerpenguinsデータセットは344 x 8のデータセットです。
+ NAデータが存在する点に注意してください。

```r
> library(palmerpenguins)
> penguins
# A tibble: 344 × 8
   species island    bill_length_mm bill_depth_mm flipper_length_mm body_mass_g sex     year
   <fct>   <fct>              <dbl>         <dbl>             <int>       <int> <fct>  <int>
 1 Adelie  Torgersen           39.1          18.7               181        3750 male    2007
 2 Adelie  Torgersen           39.5          17.4               186        3800 female  2007
 3 Adelie  Torgersen           40.3          18                 195        3250 female  2007
 4 Adelie  Torgersen           NA            NA                  NA          NA NA      2007
 5 Adelie  Torgersen           36.7          19.3               193        3450 female  2007
 6 Adelie  Torgersen           39.3          20.6               190        3650 male    2007
 7 Adelie  Torgersen           38.9          17.8               181        3625 female  2007
 8 Adelie  Torgersen           39.2          19.6               195        4675 male    2007
 9 Adelie  Torgersen           34.1          18.1               193        3475 NA      2007
10 Adelie  Torgersen           42            20.2               190        4250 NA      2007
# … with 334 more rows
```
…
+ `na.omit` 関数を使ってNAデータを含むレコードを除去しておきます。

```r
> pgs <- na.omit(penguins)
> pgs
# A tibble: 333 × 8
   species island    bill_length_mm bill_depth_mm flipper_length_mm body_mass_g sex     year
   <fct>   <fct>              <dbl>         <dbl>             <int>       <int> <fct>  <int>
 1 Adelie  Torgersen           39.1          18.7               181        3750 male    2007
 2 Adelie  Torgersen           39.5          17.4               186        3800 female  2007
 3 Adelie  Torgersen           40.3          18                 195        3250 female  2007
 4 Adelie  Torgersen           36.7          19.3               193        3450 female  2007
 5 Adelie  Torgersen           39.3          20.6               190        3650 male    2007
 6 Adelie  Torgersen           38.9          17.8               181        3625 female  2007
 7 Adelie  Torgersen           39.2          19.6               195        4675 male    2007
 8 Adelie  Torgersen           41.1          17.6               182        3200 female  2007
 9 Adelie  Torgersen           38.6          21.2               191        3800 male    2007
10 Adelie  Torgersen           34.6          21.1               198        4400 male    2007
# … with 323 more rows
```
…
```r
# A tibble: 1 × 8
  species island bill_length_mm bill_depth_mm flipper_length_mm body_mass_g sex    year
  <fct>   <fct>           <dbl>         <dbl>             <int>       <int> <fct> <int>
1 Gentoo  Biscoe           59.6            17               230        6050 male   2007
```

---

## No.3

* body_mass_g の降順でレコードを出力してください。

```r
# A tibble: 333 × 8
   species island bill_length_mm bill_depth_mm flipper_length_mm body_mass_g sex    year
   <fct>   <fct>           <dbl>         <dbl>             <int>       <int> <fct> <int>
 1 Gentoo  Biscoe           49.2          15.2               221        6300 male   2007
 2 Gentoo  Biscoe           59.6          17                 230        6050 male   2007
 3 Gentoo  Biscoe           51.1          16.3               220        6000 male   2008
 4 Gentoo  Biscoe           48.8          16.2               222        6000 male   2009
 5 Gentoo  Biscoe           45.2          16.4               223        5950 male   2008
 6 Gentoo  Biscoe           49.8          15.9               229        5950 male   2009
 7 Gentoo  Biscoe           48.4          14.6               213        5850 male   2007
 8 Gentoo  Biscoe           49.3          15.7               217        5850 male   2007
 9 Gentoo  Biscoe           55.1          16                 230        5850 male   2009
10 Gentoo  Biscoe           49.5          16.2               229        5800 male   2008
# … with 323 more rows
```

---

## No.4

* species が Adelie のレコードについて、flipper_length_mm 列について出力してください。またflipper_length_mmの平均との差分、平均との差分を2乗した値を出力しています。

```r
# A tibble: 146 × 3
   flipper_length_mm mean_diff mean_diff_squared
               <int>     <dbl>             <dbl>
 1               181    -9.10            82.9   
 2               186    -4.10            16.8   
 3               195     4.90            24.0   
 4               193     2.90             8.39  
 5               190    -0.103            0.0106
 6               181    -9.10            82.9   
 7               195     4.90            24.0   
 8               182    -8.10            65.7   
 9               191     0.897            0.805 
10               198     7.90            62.4   
# … with 136 more rows
```
…
