…
```
df <- tibble(x = 1:100,
             y = 2 * x + 1,
             z = rep(c("A", "B"), 50))
df
```

### 実行結果

```R
> df <- tibble(x = 1:100,
+              y = 2 * x + 1,
+              z = rep(c("A", "B"), 50))
> df
# A tibble: 100 x 3
       x     y z    
   <int> <dbl> <chr>
 1     1     3 A    
 2     2     5 B    
 3     3     7 A    
 4     4     9 B    
 5     5    11 A    
 6     6    13 B    
 7     7    15 A    
 8     8    17 B    
 9     9    19 A    
10    10    21 B    
# … with 90 more rows
```
…
## `as_tibble` 関数 - tibble2.R

* `as_tibble` 関数によって既存のデータフレームを拡張されたデータフレーム（ `tibble` オブジェクト）に変換できる

```r
as_tibble(iris)
```

> 標準のデータセットである `iris` をtibbleのデータフレームに変換しています。

### 実行結果

```R
> as_tibble(iris)
# A tibble: 150 x 5
   Sepal.Length Sepal.Width Petal.Length Petal.Width Species
          <dbl>       <dbl>        <dbl>       <dbl> <fct>  
 1          5.1         3.5          1.4         0.2 setosa 
 2          4.9         3            1.4         0.2 setosa 
 3          4.7         3.2          1.3         0.2 setosa 
 4          4.6         3.1          1.5         0.2 setosa 
 5          5           3.6          1.4         0.2 setosa 
 6          5.4         3.9          1.7         0.4 setosa 
 7          4.6         3.4          1.4         0.3 setosa 
 8          5           3.4          1.5         0.2 setosa 
 9          4.4         2.9          1.4         0.2 setosa 
10          4.9         3.1          1.5         0.1 setosa 
# … with 140 more rows
```
…
* tibbleのデータフレームの出力行数を変更するにはいくつかの方法がある
* `print`関数の引数 `n` を指定して出力行数を変更できる
* `print`関数の引数 `n` に `Inf` 定数を指定するとすべての行を出力できる

```r
iris_df <- as_tibble(iris)
print(iris_df, n = 5)
```

### 実行結果

```r
> iris_df <- as_tibble(iris)
> print(iris_df, n = 5)
# A tibble: 150 x 5
  Sepal.Length Sepal.Width Petal.Length Petal.Width Species
         <dbl>       <dbl>        <dbl>       <dbl> <fct>  
1          5.1         3.5          1.4         0.2 setosa 
2          4.9         3            1.4         0.2 setosa 
3          4.7         3.2          1.3         0.2 setosa 
4          4.6         3.1          1.5         0.2 setosa 
5          5           3.6          1.4         0.2 setosa 
# … with 145 more rows
```
…
```r
options(tibble.print_max = 10, tibble.print_min = 5)
irid_df <- as_tibble(iris)
iris_df
```

### 実行結果

```r
> options(tibble.print_max = 10, tibble.print_min = 5)
> irid_df <- as_tibble(iris)
> iris_df
# A tibble: 150 x 5
  Sepal.Length Sepal.Width Petal.Length Petal.Width Species
         <dbl>       <dbl>        <dbl>       <dbl> <fct>  
1          5.1         3.5          1.4         0.2 setosa 
2          4.9         3            1.4         0.2 setosa 
3          4.7         3.2          1.3         0.2 setosa 
4          4.6         3.1          1.5         0.2 setosa 
5          5           3.6          1.4         0.2 setosa 
# … with 145 more rows
```
