…
### filter関数 - 行の選択

* `filter` 関数の引数に条件式を与えることで行を選択できる

```r
iris %>% as_tibble() %>%
  filter(Species == "setosa")
```

#### 実行結果

```r
> iris %>% as_tibble() %>%
+   filter(Species == "setosa")
# A tibble: 50 x 5
   Sepal.Length Sepal.Width Petal.Length Petal.Width Species
          <dbl>       <dbl>        <dbl>       <dbl> <fct>  
 1          5.1         3.5          1.4         0.2 setosa 
 2          4.9         3            1.4         0.2 setosa 
 3          4.7         3.2          1.3         0.2 setosa 
 4          4.6         3.1          1.5         0.2 setosa 
 5          5           3.6          1.4         0.2 setosa 
 6          5.4         3.9          1.7         0.4 setosa 
 7          4.6         3.4          1.4         0.3 setosa 
 8          5           3.4          1.5         0.2 setosa 
 9          4.4         2.9          1.4         0.2 setosa 
10          4.9         3.1          1.5         0.1 setosa 
# … with 40 more rows
```
…
### filter関数 - 行の選択 - OR検索

* `filter` 関数の引数部分で論理演算子を使うこともできる（`|` は論理和）

```
iris %>% as_tibble() %>%
  filter(Species == "setosa" | Sepal.Length > 5.5)
```

#### 実行結果

```r
> iris %>% as_tibble() %>%
+   filter(Species == "setosa" | Sepal.Length > 5.5)
# A tibble: 138 x 5
   Sepal.Length Sepal.Width Petal.Length Petal.Width Species
          <dbl>       <dbl>        <dbl>       <dbl> <fct>  
 1          5.1         3.5          1.4         0.2 setosa 
 2          4.9         3            1.4         0.2 setosa 
 3          4.7         3.2          1.3         0.2 setosa 
 4          4.6         3.1          1.5         0.2 setosa 
 5          5           3.6          1.4         0.2 setosa 
 6          5.4         3.9          1.7         0.4 setosa 
 7          4.6         3.4          1.4         0.3 setosa 
 8          5           3.4          1.5         0.2 setosa 
 9          4.4         2.9          1.4         0.2 setosa 
10          4.9         3.1          1.5         0.1 setosa 
# … with 128 more rows
```
…
### select関数 - 列の選択

* select関数の引数に列名を指定することで、表示する列を選択できる

```r
iris %>% as_tibble() %>%
  select(Sepal.Length, Sepal.Width)
```

#### 実行結果

```r
> iris %>% as_tibble() %>%
+   select(Sepal.Length, Sepal.Width)
# A tibble: 150 x 2
   Sepal.Length Sepal.Width
          <dbl>       <dbl>
 1          5.1         3.5
 2          4.9         3  
 3          4.7         3.2
 4          4.6         3.1
 5          5           3.6
 6          5.4         3.9
 7          4.6         3.4
 8          5           3.4
 9          4.4         2.9
10          4.9         3.1
# … with 140 more rows
```
…
* select関数の引数にcontains関数を使うことで、列名にある文字列を含む列だけを選択できる

```r
iris %>% as_tibble() %>%
  select(contains("S"))
```

> `"S"` を含む列名を選択しています。

#### 実行結果

```r
> iris %>% as_tibble() %>%
+   select(contains("S"))
# A tibble: 150 x 3
   Sepal.Length Sepal.Width Species
          <dbl>       <dbl> <fct>  
 1          5.1         3.5 setosa 
 2          4.9         3   setosa 
 3          4.7         3.2 setosa 
 4          4.6         3.1 setosa 
 5          5           3.6 setosa 
 6          5.4         3.9 setosa 
 7          4.6         3.4 setosa 
 8          5           3.4 setosa 
 9          4.4         2.9 setosa 
10          4.9         3.1 setosa 
# … with 140 more rows
```
…
* select関数の引数にstarts_with関数を使うことで、列名の先頭部分を指定して列を選択できる

```r
iris %>% as_tibble() %>%
  select(starts_with("Petal"))
```

> 同様の関数に列名の末尾を指定する `ends_with` 関数があります。

#### 実行結果

```r
> iris %>% as_tibble() %>%
+   select(starts_with("Petal"))
# A tibble: 150 x 2
   Petal.Length Petal.Width
          <dbl>       <dbl>
 1          1.4         0.2
 2          1.4         0.2
 3          1.3         0.2
 4          1.5         0.2
 5          1.4         0.2
 6          1.7         0.4
 7          1.4         0.3
 8          1.5         0.2
 9          1.4         0.2
10          1.5         0.1
# … with 140 more rows
```
…
```r
iris %>% as_tibble() %>%
  select(matches("Length$"))
```

> ここでは列名が `Length` で終わるものを指定しています。


#### 実行結果

```r
> iris %>% as_tibble() %>%
+   select(matches("Length$"))
# A tibble: 150 x 2
   Sepal.Length Petal.Length
          <dbl>        <dbl>
 1          5.1          1.4
 2          4.9          1.4
 3          4.7          1.3
 4          4.6          1.5
 5          5            1.4
 6          5.4          1.7
 7          4.6          1.4
 8          5            1.5
 9          4.4          1.4
10          4.9          1.5
# … with 140 more rows
```
…
### select関数 - 列の選択 - everything関数

* select関数の引数にeverything関数を使うことで、残りの列を全て選択できる

```r
iris %>% as_tibble() %>%
  select(Species, everything())
```

#### 実行結果

```r
> iris %>% as_tibble() %>%
+   select(Species, everything())
# A tibble: 150 x 5
   Species Sepal.Length Sepal.Width Petal.Length Petal.Width
   <fct>          <dbl>       <dbl>        <dbl>       <dbl>
 1 setosa           5.1         3.5          1.4         0.2
 2 setosa           4.9         3            1.4         0.2
 3 setosa           4.7         3.2          1.3         0.2
 4 setosa           4.6         3.1          1.5         0.2
 5 setosa           5           3.6          1.4         0.2
 6 setosa           5.4         3.9          1.7         0.4
 7 setosa           4.6         3.4          1.4         0.3
 8 setosa           5           3.4          1.5         0.2
 9 setosa           4.4         2.9          1.4         0.2
10 setosa           4.9         3.1          1.5         0.1
# … with 140 more rows
```
…
> mutate関数の 引数名を `Sepal.Length.z` から `Sepal.Length` に変更すると、既存の`Sepal.Length` 列を更新（上書き）できます。


#### 実行結果

```r
> iris %>% as_tibble() %>%
+   mutate(
+     Sepal.Length.z = (Sepal.Length - mean(Sepal.Length)) / sd(Sepal.Length),
+     Sepal.Width.z = (Sepal.Width - mean(Sepal.Width)) / sd(Sepal.Width),
+     Size = ifelse(Sepal.Length.z > 1 & Sepal.Width.z > 1, "Large", "Small")
+   ) 
# A tibble: 150 x 8
   Sepal.Length Sepal.Width Petal.Length Petal.Width Species Sepal.Length.z Sepal.Width.z Size 
          <dbl>       <dbl>        <dbl>       <dbl> <fct>            <dbl>         <dbl> <chr>
 1          5.1         3.5          1.4         0.2 setosa          -0.898        1.02   Small
 2          4.9         3            1.4         0.2 setosa          -1.14        -0.132  Small
 3          4.7         3.2          1.3         0.2 setosa          -1.38         0.327  Small
 4          4.6         3.1          1.5         0.2 setosa          -1.50         0.0979 Small
 5          5           3.6          1.4         0.2 setosa          -1.02         1.25   Small
 6          5.4         3.9          1.7         0.4 setosa          -0.535        1.93   Small
 7          4.6         3.4          1.4         0.3 setosa          -1.50         0.786  Small
 8          5           3.4          1.5         0.2 setosa          -1.02         0.786  Small
 9          4.4         2.9          1.4         0.2 setosa          -1.74        -0.361  Small
10          4.9         3.1          1.5         0.1 setosa          -1.14         0.0979 Small
# … with 140 more rows
```
…
### arrange関数 - 表示のソート

* arrange関数の引数に列名を指定することで、指定した列の値で表示をソートできる（デフォルトは昇順）

```r
iris %>% as_tibble() %>%
  arrange(Sepal.Length)
```

#### 実行結果

```r
> iris %>% as_tibble() %>%
+   arrange(Sepal.Length)
# A tibble: 150 x 5
   Sepal.Length Sepal.Width Petal.Length Petal.Width Species
          <dbl>       <dbl>        <dbl>       <dbl> <fct>  
 1          4.3         3            1.1         0.1 setosa 
 2          4.4         2.9          1.4         0.2 setosa 
 3          4.4         3            1.3         0.2 setosa 
 4          4.4         3.2          1.3         0.2 setosa 
 5          4.5         2.3          1.3         0.3 setosa 
 6          4.6         3.1          1.5         0.2 setosa 
 7          4.6         3.4          1.4         0.3 setosa 
 8          4.6         3.6          1           0.2 setosa 
 9          4.6         3.2          1.4         0.2 setosa 
10          4.7         3.2          1.3         0.2 setosa 
# … with 140 more rows
```
…
### arrange関数 - 表示のソート - desc関数

* arrange関数の引数にdesc関数を使用することで、指定した列の値で表示を降順でソートできる

```r
iris %>% as_tibble() %>%
  arrange(desc(Sepal.Length))
```

#### 実行結果

```r
> iris %>% as_tibble() %>%
+   arrange(desc(Sepal.Length))
# A tibble: 150 x 5
   Sepal.Length Sepal.Width Petal.Length Petal.Width Species  
          <dbl>       <dbl>        <dbl>       <dbl> <fct>    
 1          7.9         3.8          6.4         2   virginica
 2          7.7         3.8          6.7         2.2 virginica
 3          7.7         2.6          6.9         2.3 virginica
 4          7.7         2.8          6.7         2   virginica
 5          7.7         3            6.1         2.3 virginica
 6          7.6         3            6.6         2.1 virginica
 7          7.4         2.8          6.1         1.9 virginica
 8          7.3         2.9          6.3         1.8 virginica
 9          7.2         3.6          6.1         2.5 virginica
10          7.2         3.2          6           1.8 virginica
# … with 140 more rows
```
…
### arrange関数 - 表示のソート - 複数の列によるソート

* arrange関数の引数に複数の列名を指定することで、複数の列を組み合わせてソートできる

```r
iris %>% as_tibble() %>%
  arrange(desc(Sepal.Length), desc(Sepal.Width))
```

#### 実行結果

```r
> iris %>% as_tibble() %>%
+   arrange(desc(Sepal.Length), desc(Sepal.Width))
# A tibble: 150 x 5
   Sepal.Length Sepal.Width Petal.Length Petal.Width Species  
          <dbl>       <dbl>        <dbl>       <dbl> <fct>    
 1          7.9         3.8          6.4         2   virginica
 2          7.7         3.8          6.7         2.2 virginica
 3          7.7         3            6.1         2.3 virginica
 4          7.7         2.8          6.7         2   virginica
 5          7.7         2.6          6.9         2.3 virginica
 6          7.6         3            6.6         2.1 virginica
 7          7.4         2.8          6.1         1.9 virginica
 8          7.3         2.9          6.3         1.8 virginica
 9          7.2         3.6          6.1         2.5 virginica
10          7.2         3.2          6           1.8 virginica
# … with 140 more rows
```
…
