…
### 実行結果

```r
> iris %>% 
+   as_tibble() %>% 
+   select(1, 2) %>% 
+   mutate(
+     sl_mean = mean(Sepal.Length),
+     sw_mean = mean(Sepal.Width)
+   )
# A tibble: 150 × 4
   Sepal.Length Sepal.Width sl_mean sw_mean
          <dbl>       <dbl>   <dbl>   <dbl>
 1          5.1         3.5    5.84    3.06
 2          4.9         3      5.84    3.06
 3          4.7         3.2    5.84    3.06
 4          4.6         3.1    5.84    3.06
 5          5           3.6    5.84    3.06
 6          5.4         3.9    5.84    3.06
 7          4.6         3.4    5.84    3.06
 8          5           3.4    5.84    3.06
 9          4.4         2.9    5.84    3.06
10          4.9         3.1    5.84    3.06
# … with 140 more rows
```
…
### 実行結果

```r
> iris %>% 
+   as_tibble() %>% 
+   select(1, 2) %>% 
+   mutate(
+     s_mean = mean(c(Sepal.Length, Sepal.Width)),
+   )
# A tibble: 150 × 3
   Sepal.Length Sepal.Width s_mean
          <dbl>       <dbl>  <dbl>
 1          5.1         3.5   4.45
 2          4.9         3     4.45
 3          4.7         3.2   4.45
 4          4.6         3.1   4.45
 5          5           3.6   4.45
 6          5.4         3.9   4.45
 7          4.6         3.4   4.45
 8          5           3.4   4.45
 9          4.4         2.9   4.45
10          4.9         3.1   4.45
# … with 140 more rows
```
…
### 実行結果

```r
> iris %>% 
+   as_tibble() %>% 
+   select(1, 2) %>% 
+   mutate(
+     s_mean = (Sepal.Length + Sepal.Width) / 2
+   )
# A tibble: 150 × 3
   Sepal.Length Sepal.Width s_mean
          <dbl>       <dbl>  <dbl>
 1          5.1         3.5   4.3 
 2          4.9         3     3.95
 3          4.7         3.2   3.95
 4          4.6         3.1   3.85
 5          5           3.6   4.3 
 6          5.4         3.9   4.65
 7          4.6         3.4   4   
 8          5           3.4   4.2 
 9          4.4         2.9   3.65
10          4.9         3.1   4   
# … with 140 more rows
```
…
### 実行結果

```r
> iris %>% 
+   as_tibble() %>% 
+   select(1, 2) %>% 
+   rowwise() %>% 
+   mutate(
+     s_mean = mean(c(Sepal.Length, Sepal.Width))
+   )
# A tibble: 150 × 3
# Rowwise: 
   Sepal.Length Sepal.Width s_mean
          <dbl>       <dbl>  <dbl>
 1          5.1         3.5   4.3 
 2          4.9         3     3.95
 3          4.7         3.2   3.95
 4          4.6         3.1   3.85
 5          5           3.6   4.3 
 6          5.4         3.9   4.65
 7          4.6         3.4   4   
 8          5           3.4   4.2 
 9          4.4         2.9   3.65
10          4.9         3.1   4   
# … with 140 more rows
```
…
```r
iris %>% 
  as_tibble() %>% 
  group_nest(Species) %>% 
  pluck("data", 1)
```

### 実行結果

```r
> iris %>% 
+   as_tibble() %>% 
+   group_nest(Species) %>% 
+   pluck("data", 1)
# A tibble: 50 × 4
   Sepal.Length Sepal.Width Petal.Length Petal.Width
          <dbl>       <dbl>        <dbl>       <dbl>
 1          5.1         3.5          1.4         0.2
 2          4.9         3            1.4         0.2
 3          4.7         3.2          1.3         0.2
 4          4.6         3.1          1.5         0.2
 5          5           3.6          1.4         0.2
 6          5.4         3.9          1.7         0.4
 7          4.6         3.4          1.4         0.3
 8          5           3.4          1.5         0.2
 9          4.4         2.9          1.4         0.2
10          4.9         3.1          1.5         0.1
# … with 40 more rows
```
…
+ 以下の手順で `palmerpenguins` データセットを準備します。

```r
install.packages("palmerpenguins")
library(palmerpenguins)
pgs <- na.omit(penguins)
pgs
```

### Ex1

* Tidyverseを使って次の実行結果のとおり出力してください。

```
# A tibble: 333 × 3
# Rowwise: 
   bill_length_mm bill_depth_mm bill_mean
            <dbl>         <dbl>     <dbl>
 1           39.1          18.7      28.9
 2           39.5          17.4      28.4
 3           40.3          18        29.2
 4           36.7          19.3      28  
 5           39.3          20.6      30.0
 6           38.9          17.8      28.4
 7           39.2          19.6      29.4
 8           41.1          17.6      29.4
 9           38.6          21.2      29.9
10           34.6          21.1      27.8
# … with 323 more rows
```
…
